{
  "id": "dtn3",
  "question": "Suis-je une administration de plus de 50 fonctionnaires ?",
  "answers": [
    {
      "text": "Oui",
      "target": "dtn7"
    },
    {
      "text": "Non",
      "target": "dtn6"
    }
  ]
}
