{
  "id": "dtn6",
  "question": "Ai-je reçu une demande de communication ?",
  "answers": [
    {
      "text": "Oui",
      "target": "dtn8"
    },
    {
      "text": "Non",
      "target": "dtn9"
    }
  ]
}
